<?xml version="1.0" encoding="utf-8"?>
<!-- Generator: Adobe Illustrator 22.0.1, SVG Export Plug-In . SVG Version: 6.00 Build 0)  -->
<svg version="1.1" id="レイヤー_1" xmlns="http://www.w3.org/2000/svg" xmlns:xlink="http://www.w3.org/1999/xlink" x="0px"
	 y="0px" viewBox="0 0 176 80.1" style="enable-background:new 0 0 176 80.1;" xml:space="preserve">
<style type="text/css">
	.st0{fill:#FFFFFF;enable-background:new    ;}
</style>
<path id="Staff" class="st0" d="M0,51c0,6.2,6.6,12,17.4,12c11,0,21-5.9,21-16.6c0-16.5-25.3-16.9-25.3-28.6c0-5,4.2-8.9,9.8-8.9
	c7.8,0,12.3,7.6,12.3,7.6h0.6c2-1.5,3.3-3.7,3.5-6.2c0-4.9-11-5.8-14.9-5.8c-9.9,0-20.1,5.4-20.1,15.8c0,15.7,25.3,16.2,25.3,28.9
	c0,4.2-2.2,9-10.5,9c-7.6,0-11.5-4.1-11.5-8.6c0.1-2.4,0.9-4.6,2.5-6.4c-0.9-0.7-2-1.1-3.1-1.1C3,42.2,0,46.8,0,51z M45.8,52
	c0,7,4.8,10.6,11.4,10.6c3.1,0.1,6.1-1,8.6-2.9s4.6-4.5,6.2-6.9L71.4,48c-1.3,2.2-3.5,5.7-5.7,7.7c-1.5,1.4-3.6,2.2-5.7,2.2
	c-4.7,0-5.9-3.2-5.9-8.8c0.2-7.4,0.9-14.7,2.1-22c0,0,5,0.2,5.8,0.2c3,0,4.3-2,4.3-5.7c-1.3,0.2-2.7,0.3-4,0.2h-5.6l1.5-8.4l-2-0.8
	c-2.1,4.2-6.6,8.6-11,9.2L45,25.2c2.3,1,2.9,1.5,2.9,5.4C47.8,38.5,45.8,47.4,45.8,52L45.8,52z M84.7,57.9c-2.8,0-4.4-4.9-4.4-10.1
	c0-9.4,4-23.1,13.1-23.1c2.5,0,3.8,1.2,4.1,3.7c-0.4,5-0.9,9.6-1.5,13.7C95,47.9,89.3,57.9,84.7,57.9L84.7,57.9z M81.5,63
	c5.9,0,10.6-5.5,13-10.2h0.4c-0.1,0.5-0.1,1-0.1,1.4c0,4.9,3.1,8.4,8.2,8.4c3.8,0,7.2-2.1,9.9-4.8c3-3.3,5.6-7.1,7.4-11.1
	c0.2-0.7-0.2-1.4-0.9-1.6c-0.2-0.1-0.3-0.1-0.5-0.1c-0.6,0-1.1,0.3-1.4,0.9c-1.3,2.7-2.9,5.2-4.7,7.5c-1.9,2.4-4.2,4.4-6.5,4.4
	c-2.8,0-3.4-3.1-3.4-6.7c0-2.8,2.8-25.2,3.8-29l-0.2-0.2c-5.8-0.2-9.2-1.2-12.1-1.2c-13.2,0-22.8,12.4-22.8,27.6
	C71.7,57.3,75.4,63,81.5,63L81.5,63z M111.1,79.4l0.2,0.7c20.2-4.4,18.5-33.5,19.3-52.9c1,0,7.9,0.1,14.6,0.1
	c-0.4,17.3-0.6,30.1-3.8,39.5c-4.1,2.2-7.8,7.2-9.6,11.4c0.7,0.6,1.6,0.9,2.6,0.8c0.7,0,1.3-0.1,1.9-0.3c5.1-2.2,9.1-6.3,11.4-11.3
	c5.4-2.6,9.7-4.2,14.4-7.6c5.9-4.4,9.6-13,9.6-13c0.1-0.1,0.1-0.3,0.1-0.4c-0.1-0.7-0.7-1.3-1.4-1.3c-0.6,0-1.1,0.3-1.4,0.9
	c0,0-3,6.5-6.9,9.8c-4,3.5-8.3,5.4-12.6,7.2c3.4-10.4,3-23.8,3.5-35.6h4.7c3.6,0,5.5-0.8,5.5-6c-1.3,0.4-2.6,0.5-3.9,0.5h-6.1
	c0.1-8.8,3.5-17.1,10.1-17.1c3,0,6.6,2.2,8.3,5.8h0.4c0,0,4-1.4,4-4.8c0-4.5-6.9-5.7-10.7-5.7c-4.6-0.1-9.1,1.6-12.6,4.6
	c-2.2-2-6.6-2.6-9.3-2.6C133,2,124.3,9.7,123.2,20c-0.8,1.2-2.2,1.9-5.2,1.9l-0.2,3.4c4.7,1.4,4.8,1.6,4.8,9
	C122.6,53.2,120.9,69.9,111.1,79.4L111.1,79.4z M130.9,21.8c0.1-7.6,3.7-15.1,10.5-15.1c2.7,0.1,5.2,1.4,6.9,3.5
	c-1.7,3.1-2.5,7-2.8,11.6H130.9L130.9,21.8z"/>
</svg>
