<?xml version="1.0" encoding="utf-8"?>
<!-- Generator: Adobe Illustrator 22.0.1, SVG Export Plug-In . SVG Version: 6.00 Build 0)  -->
<svg version="1.1" id="レイヤー_1" xmlns="http://www.w3.org/2000/svg" xmlns:xlink="http://www.w3.org/1999/xlink" x="0px"
	 y="0px" viewBox="0 0 275.7 76.8" style="enable-background:new 0 0 275.7 76.8;" xml:space="preserve">
<style type="text/css">
	.st0{fill:#FFFFFF;enable-background:new    ;}
</style>
<path id="Enquiry" class="st0" d="M0,58.4l26.8,0.4c6.3,0.1,7.6-0.6,7.8-7.8c-2,1-5.4,1.6-10.3,1.8l-14,0.4
	c0.3-4.9,0.3-9.2,1.3-21.8c0,0,7.7,0.5,11.6,0.5s4.6-2.2,5-5.9c-1.4,0.6-2.9,0.9-4.5,0.8H11.9L13.5,7c0,0,5.7,1.4,16,1.4
	c4.8,0,4.9-3.8,4.9-7.1L34,1c-1.4,1.3-6,1.4-16.4,1.4h-14C3.8,5.2,3.9,8,3.8,10.8L3,26.6c-1.9,0.1-2.5,0.9-2.5,2.2
	c-0.1,1.1,0.7,2.1,1.8,2.2c0.2,0,0.3,0,0.5,0l-0.3,5.3C1.3,55.8,0,58.4,0,58.4z M38.8,59.1c7.9,0,8.6-0.1,8.6-6.4
	c0-6.7,0.8-13.2,3.5-19.6c2.2-5,5.7-10.5,9.8-10.5c2.6,0,3.6,2,3.6,6.7c0,6.5-2,16.3-2,20.9c0,5.4,2.8,9,8.1,9c4,0,7.4-2.2,9.9-4.8
	c1.3-1.5,2.6-3,3.7-4.6l-0.6-4.4c-1,1.6-2,3.2-3.2,4.7c-1.6,2-4,4.4-6.5,4.4c-2.8,0-3.4-3.1-3.4-6.7c0-6.5,2.2-13.6,2.2-20.1
	c0-5.8-1.7-10.3-8.3-10.3c-7.3,0-11.3,5.4-14.3,11h-0.4c0.4-1.6,0.7-3.2,0.7-4.8c0-3.8-1.8-5.9-5-5.9c-1.5,0.1-3.1,0.4-4.6,0.8
	c0.7,2.8,1.1,5.7,1,8.6C41.7,35.3,38.8,51.5,38.8,59.1z M94.2,59.6c8,0,13-10.6,13-10.6c-0.6,5.1-1.1,10.3-1.4,15
	c-0.1,1.5-0.9,4-0.9,5.7c0,3.8,0.6,7,5.7,7c1.3,0,2.5-0.1,3.8-0.4c-0.5-2.5-0.8-5.1-0.7-7.7c0-1.8,0-3.6,0.1-5.4
	c3.3-3.7,9.5-6,14.6-13.6l0.5-6.4c-0.6,1.1-1.7,3-2.2,3.8c-4,6.4-8.7,8.8-12.6,11.8c1-15.2,3.8-30.1,3.8-34.2c0-6.3-5.9-7.1-9.7-7.1
	c-14.2,0-24.3,11.9-24.3,26.6C83.7,53.6,87.9,59.6,94.2,59.6z M97.2,54.1c-3.3,0-4.6-5.2-4.6-9.8c0-7.3,3.4-23,12.2-23
	c2.8,0,4.6,1.6,4.6,5.7c-0.1,4-0.5,8-1.1,11.9C107.5,44.7,101.6,54.1,97.2,54.1z M128.4,49.6c0,5.1,1.4,9.9,8.4,9.9
	c7.4,0,11.3-5.1,14.4-11h0.4c-0.2,1.1-0.4,2.1-0.4,3.2c0,4.7,3.4,7.5,7.9,7.5c6.6,0,11.6-5.7,14.6-10.3l0.9-7
	c-0.2,0.2-0.4,0.4-0.5,0.7c0,0-5.8,11.9-11.2,11.9c-2.8,0-3.4-3.2-3.4-6.3c0-6.4,2.8-18.2,2.8-24.2c0-4.4-1.5-6.3-4.5-6.3
	c-1.5,0.1-3.1,0.4-4.6,0.8c0.4,3,0.5,6,0.5,9c0.1,5.6-1,11.2-3.4,16.3c-2.2,5-5.7,10.5-9.9,10.5c-2.5,0-3.8-2-3.8-6.6
	c0-6.7,2.8-17.4,2.8-23.4c0-5-1.8-6.6-4.7-6.6c-1.5,0.1-3,0.3-4.4,0.8c0.3,2.6,0.5,5.3,0.5,7.9C130.8,35.3,128.4,42.8,128.4,49.6z
	 M173.8,50.2c0,5.4,2.8,9,8.1,9c2.8-0.1,5.6-1.1,7.8-2.9c4.3-3.3,7.5-8.9,8.9-11.5c0.1-0.3,0.3-0.5,0.4-0.7c0.4-0.8,0.4-0.8,0.4-0.8
	c-1.4,2.6-3.4,0.6-3.1,0c0.1-0.2,0,0-0.4,0.8c-1.2,2.1-3.5,5.9-6,8.3c-1.1,1.2-2.7,1.9-4.3,2.1c-2.8,0-3.4-3.1-3.4-6.7
	c0-6,2.9-15.4,2.9-24.2c0-3.8-1.8-5.9-5-5.9c-1.5,0.1-3.1,0.4-4.6,0.8c0.7,2.8,1.1,5.7,1,8.6C176.2,36.6,173.8,46.3,173.8,50.2z
	 M181.6,10.5c2.9,0,5.3-2.3,5.3-5.2S184.6,0,181.7,0s-5.3,2.3-5.3,5.2v0.1C176.5,8.1,178.8,10.4,181.6,10.5L181.6,10.5z M197.6,44.4
	c0.6,0.1,1.2-0.3,1.4-0.8c1.6-3.5,2.4-7.2,2.4-11c0-1.3-0.1-2.6-0.3-3.9c1.2,0.2,2.4,0.3,3.6,0.3c1.8,0,3.7-0.3,5.4-0.8
	c-2.6,5.1-5.3,13.6-5.3,20.8c0,6.7,3.2,10.2,8.8,10.2c9.4,0,15.9-7.8,18.7-12.7l-1.2-3.8c-1.3,2.5-6.8,11.7-13.8,11.7
	c-4.2,0-5.1-3.3-5.1-6.6c0-7.1,4.6-17.9,7.1-23l2.9-1.4c0.5-0.6,0.7-1.4,0.7-2.2c0-1.1-0.4-2.1-1.3-2.7c-3.3,0-6.5,1-7.7,3
	c-1.9,0.5-3.8,0.7-5.8,0.7c-2.8,0-5.5-0.7-7.8-2.2c-0.3-1.7-1.2-2.8-2.3-2.8c-3,0-4.3,4.9-4.3,7c0,1.6,1.1,2.2,3,3
	c0.7,2.6,1.1,5.2,1.1,7.9c0,2.5-0.5,4.9-1.4,7.2C196,43.4,196.2,44.4,197.6,44.4z M228.9,69.6c-1.8,0-3.6-0.3-5.4-0.8
	c-0.5,1.4-0.8,2.8-1,4.2c0,2.1,1.4,3.8,4.9,3.8c11.4,0,20.5-18.4,23.8-25l4.6-9.3c1.2,5.5,3.8,9.7,9.9,9.7c5.3,0,7.8-4.3,9.8-8.5
	c0.1-0.2,0.2-0.5,0.2-0.8c-0.1-0.8-0.7-1.4-1.5-1.3c0,0,0,0-0.1,0c-0.6,0.1-1.1,0.5-1.3,1c-1.6,3-3,6.5-6.7,6.5
	c-5.4,0-7.2-6.3-7.7-12.9c2.1-5.2,3.8-10.5,3.8-13.8c0-3.6-1.9-4.6-4.7-4.6c-1.7,0-2,0.6-2,0.6c-0.4,3.7-0.7,7.4-0.7,11.1v4.3
	c-1.8,5.7-4.1,11.2-6.8,16.6c-0.6,0.5-1.3,0.8-2.1,0.8c-5.8,0-7.6-12.9-7.6-21.3c0-3.2,0.7-9.6,2.5-12.2l-0.2-0.6
	c-9.3,0-10.9,4.4-10.9,13.5c0,13.1,5.5,26.7,13.6,26.7c0.4,0,0.8,0,1.2-0.2C241.1,63.2,236,69.6,228.9,69.6z"/>
</svg>
